^C:\USERS\ADMIN\DESKTOP\HABANERO\VSAPPBBX\X64\DEBUG\VSAPPBBX.OBJ
C:\WINDOWS\GLOBALIZATION\SORTING\SORTDEFAULT.NLS
C:\USERS\ADMIN\DESKTOP\HABANERO\VSAPPBBX\X64\DEBUG\VSAPPBBX.OBJ
C:\WINDOWS\SYSTEM32\TZRES.DLL
